Introdução ao R/R Studio
…
## The following objects are masked from 'package:stats':
## 
##     filter, lag

## The following objects are masked from 'package:base':
## 
##     intersect, setdiff, setequal, union

10.1.1 Usando tibbles

Qualquer data frame pode ser convertido em tibble usando a função as_tibble().

as_tibble(iris)

## # A tibble: 150 x 5
##    Sepal.Length Sepal.Width Petal.Length Petal.Width Species
##           <dbl>       <dbl>        <dbl>       <dbl>  <fctr>
##  1          5.1         3.5          1.4         0.2  setosa
##  2          4.9         3.0          1.4         0.2  setosa
##  3          4.7         3.2          1.3         0.2  setosa
##  4          4.6         3.1          1.5         0.2  setosa
##  5          5.0         3.6          1.4         0.2  setosa
##  6          5.4         3.9          1.7         0.4  setosa
##  7          4.6         3.4          1.4         0.3  setosa
##  8          5.0         3.4          1.5         0.2  setosa
##  9          4.4         2.9          1.4         0.2  setosa
## 10          4.9         3.1          1.5         0.1  setosa
## # ... with 140 more rows
…
Na verdade o pacote nycflights13 contém um extenso banco relacional que também pode ser usados para entender como manipular dados distribuídos em tabelas distintas em um banco relacional. (Consulte “Relacional Data” em Grolemund and Wickham (2016) para maiores informações).

10.2.1 Carregando os dados

Instale o pacote antes de carregar e observe que os dados flights já são armazenados como o tipo tibble e por isso são impressos de forma reduzida.

library(nycflights13)
dim(flights)

## [1] 336776     19

flights

## # A tibble: 336,776 x 19
##     year month   day dep_time sched_dep_time dep_delay arr_time
##    <int> <int> <int>    <int>          <int>     <dbl>    <int>
##  1  2013     1     1      517            515         2      830
##  2  2013     1     1      533            529         4      850
##  3  2013     1     1      542            540         2      923
##  4  2013     1     1      544            545        -1     1004
##  5  2013     1     1      554            600        -6      812
##  6  2013     1     1      554            558        -4      740
##  7  2013     1     1      555            600        -5      913
##  8  2013     1     1      557            600        -3      709
##  9  2013     1     1      557            600        -3      838
## 10  2013     1     1      558            600        -2      753
## # ... with 336,766 more rows, and 12 more variables: sched_arr_time <int>,
## #   arr_delay <dbl>, carrier <chr>, flight <int>, tailnum <chr>,
## #   origin <chr>, dest <chr>, air_time <dbl>, distance <dbl>, hour <dbl>,
## #   minute <dbl>, time_hour <dttm>
…
Figura 10.3: Operadores booleanos usados em filter(). x representa o círculo esquerdo e y o círculo direito, e a área sombreada a selação. (Fonte:(Grolemund and Wickham 2016)).

Por exemplo, para selecionar todos o voos do dia 01 de Janeiro:

filter(flights, month == 1, day == 1)

## # A tibble: 842 x 19
##     year month   day dep_time sched_dep_time dep_delay arr_time
##    <int> <int> <int>    <int>          <int>     <dbl>    <int>
##  1  2013     1     1      517            515         2      830
##  2  2013     1     1      533            529         4      850
##  3  2013     1     1      542            540         2      923
##  4  2013     1     1      544            545        -1     1004
##  5  2013     1     1      554            600        -6      812
##  6  2013     1     1      554            558        -4      740
##  7  2013     1     1      555            600        -5      913
##  8  2013     1     1      557            600        -3      709
##  9  2013     1     1      557            600        -3      838
## 10  2013     1     1      558            600        -2      753
## # ... with 832 more rows, and 12 more variables: sched_arr_time <int>,
## #   arr_delay <dbl>, carrier <chr>, flight <int>, tailnum <chr>,
## #   origin <chr>, dest <chr>, air_time <dbl>, distance <dbl>, hour <dbl>,
## #   minute <dbl>, time_hour <dttm>
…
Solução

nov_dez <- filter(flights, month == 11 | month == 12)

#ou 

nov_dez <- filter(flights, month %in% c(11, 12))

Encontre os voos que não atrasaram (na partida ou chegada) por mais de duas horas:

Solução

filter(flights, arr_delay <= 120, dep_delay <= 120)

## # A tibble: 316,050 x 19
##     year month   day dep_time sched_dep_time dep_delay arr_time
##    <int> <int> <int>    <int>          <int>     <dbl>    <int>
##  1  2013     1     1      517            515         2      830
##  2  2013     1     1      533            529         4      850
##  3  2013     1     1      542            540         2      923
##  4  2013     1     1      544            545        -1     1004
##  5  2013     1     1      554            600        -6      812
##  6  2013     1     1      554            558        -4      740
##  7  2013     1     1      555            600        -5      913
##  8  2013     1     1      557            600        -3      709
##  9  2013     1     1      557            600        -3      838
## 10  2013     1     1      558            600        -2      753
## # ... with 316,040 more rows, and 12 more variables: sched_arr_time <int>,
## #   arr_delay <dbl>, carrier <chr>, flight <int>, tailnum <chr>,
## #   origin <chr>, dest <chr>, air_time <dbl>, distance <dbl>, hour <dbl>,
## #   minute <dbl>, time_hour <dttm>

#ou
filter(flights, !(arr_delay > 120 | dep_delay > 120))

## # A tibble: 316,050 x 19
##     year month   day dep_time sched_dep_time dep_delay arr_time
##    <int> <int> <int>    <int>          <int>     <dbl>    <int>
##  1  2013     1     1      517            515         2      830
##  2  2013     1     1      533            529         4      850
##  3  2013     1     1      542            540         2      923
##  4  2013     1     1      544            545        -1     1004
##  5  2013     1     1      554            600        -6      812
##  6  2013     1     1      554            558        -4      740
##  7  2013     1     1      555            600        -5      913
##  8  2013     1     1      557            600        -3      709
##  9  2013     1     1      557            600        -3      838
## 10  2013     1     1      558            600        -2      753
## # ... with 316,040 more rows, and 12 more variables: sched_arr_time <int>,
## #   arr_delay <dbl>, carrier <chr>, flight <int>, tailnum <chr>,
## #   origin <chr>, dest <chr>, air_time <dbl>, distance <dbl>, hour <dbl>,
## #   minute <dbl>, time_hour <dttm>
…
Use o help() para explorar essas funções!

Exemplos:

Seleciona todas as colunas exceto tailnum:

select(flights,-tailnum)

Seleciona todas as colunas cujo nome contenha “time”:

select(flights,contains("time"))

## # A tibble: 336,776 x 6
##    dep_time sched_dep_time arr_time sched_arr_time air_time
##       <int>          <int>    <int>          <int>    <dbl>
##  1      517            515      830            819      227
##  2      533            529      850            830      227
##  3      542            540      923            850      160
##  4      544            545     1004           1022      183
##  5      554            600      812            837      116
##  6      554            558      740            728      150
##  7      555            600      913            854      158
##  8      557            600      709            723       53
##  9      557            600      838            846      140
## 10      558            600      753            745      138
## # ... with 336,766 more rows, and 1 more variables: time_hour <dttm>

Comunas também podem ser renomeadas com o select()

select(flights,year,carrier,destination=dest)

## # A tibble: 336,776 x 3
##     year carrier destination
##    <int>   <chr>       <chr>
##  1  2013      UA         IAH
##  2  2013      UA         IAH
##  3  2013      AA         MIA
##  4  2013      B6         BQN
##  5  2013      DL         ATL
##  6  2013      UA         ORD
##  7  2013      B6         FLL
##  8  2013      EV         IAD
##  9  2013      B6         MCO
## 10  2013      AA         ORD
## # ... with 336,766 more rows

A função everything() pode ser usada em conjunção com select() para reodenar as colunas.

select(flights, time_hour, air_time, everything())

## # A tibble: 336,776 x 19
##              time_hour air_time  year month   day dep_time sched_dep_time
##                 <dttm>    <dbl> <int> <int> <int>    <int>          <int>
##  1 2013-01-01 05:00:00      227  2013     1     1      517            515
##  2 2013-01-01 05:00:00      227  2013     1     1      533            529
##  3 2013-01-01 05:00:00      160  2013     1     1      542            540
##  4 2013-01-01 05:00:00      183  2013     1     1      544            545
##  5 2013-01-01 06:00:00      116  2013     1     1      554            600
##  6 2013-01-01 05:00:00      150  2013     1     1      554            558
##  7 2013-01-01 06:00:00      158  2013     1     1      555            600
##  8 2013-01-01 06:00:00       53  2013     1     1      557            600
##  9 2013-01-01 06:00:00      140  2013     1     1      557            600
## 10 2013-01-01 06:00:00      138  2013     1     1      558            600
## # ... with 336,766 more rows, and 12 more variables: dep_delay <dbl>,
## #   arr_time <int>, sched_arr_time <int>, arr_delay <dbl>, carrier <chr>,
## #   flight <int>, tailnum <chr>, origin <chr>, dest <chr>, distance <dbl>,
## #   hour <dbl>, minute <dbl>
…
Exemplo:

flights_sml <- select(flights, 
                              year:day, 
                              ends_with("delay"), 
                              distance, 
                              air_time
)
mutate(flights_sml,
                    gain = arr_delay - dep_delay,
                    speed = distance / air_time * 60
)

## # A tibble: 336,776 x 9
##     year month   day dep_delay arr_delay distance air_time  gain    speed
##    <int> <int> <int>     <dbl>     <dbl>    <dbl>    <dbl> <dbl>    <dbl>
##  1  2013     1     1         2        11     1400      227     9 370.0441
##  2  2013     1     1         4        20     1416      227    16 374.2731
##  3  2013     1     1         2        33     1089      160    31 408.3750
##  4  2013     1     1        -1       -18     1576      183   -17 516.7213
##  5  2013     1     1        -6       -25      762      116   -19 394.1379
##  6  2013     1     1        -4        12      719      150    16 287.6000
##  7  2013     1     1        -5        19     1065      158    24 404.4304
##  8  2013     1     1        -3       -14      229       53   -11 259.2453
##  9  2013     1     1        -3        -8      944      140    -5 404.5714
## 10  2013     1     1        -2         8      733      138    10 318.6957
## # ... with 336,766 more rows

E as colunas recem criadas podem já ser usadas em novas expressões:

mutate(flights,
  gain = arr_delay - dep_delay,
  hours = air_time / 60,
  gain_per_hour = gain / hours
)

## # A tibble: 336,776 x 22
##     year month   day dep_time sched_dep_time dep_delay arr_time
##    <int> <int> <int>    <int>          <int>     <dbl>    <int>
##  1  2013     1     1      517            515         2      830
##  2  2013     1     1      533            529         4      850
##  3  2013     1     1      542            540         2      923
##  4  2013     1     1      544            545        -1     1004
##  5  2013     1     1      554            600        -6      812
##  6  2013     1     1      554            558        -4      740
##  7  2013     1     1      555            600        -5      913
##  8  2013     1     1      557            600        -3      709
##  9  2013     1     1      557            600        -3      838
## 10  2013     1     1      558            600        -2      753
## # ... with 336,766 more rows, and 15 more variables: sched_arr_time <int>,
## #   arr_delay <dbl>, carrier <chr>, flight <int>, tailnum <chr>,
## #   origin <chr>, dest <chr>, air_time <dbl>, distance <dbl>, hour <dbl>,
## #   minute <dbl>, time_hour <dttm>, gain <dbl>, hours <dbl>,
## #   gain_per_hour <dbl>

E se o interesse é manter apenas as novas colunas, use transmute():

transmute(flights,
  gain = arr_delay - dep_delay,
  hours = air_time / 60,
  gain_per_hour = gain / hours
)

## # A tibble: 336,776 x 3
##     gain     hours gain_per_hour
##    <dbl>     <dbl>         <dbl>
##  1     9 3.7833333      2.378855
##  2    16 3.7833333      4.229075
##  3    31 2.6666667     11.625000
##  4   -17 3.0500000     -5.573770
##  5   -19 1.9333333     -9.827586
##  6    16 2.5000000      6.400000
##  7    24 2.6333333      9.113924
##  8   -11 0.8833333    -12.452830
##  9    -5 2.3333333     -2.142857
## 10    10 2.3000000      4.347826
## # ... with 336,766 more rows
…
Compare air_time com (arr_time - dep_time). O resultado indica algum padrão? O que aconteceu com o resultado? Como corrigir?

Compare dep_time, sched_dep_time, and dep_delay. Qual é a relação esperada entre essas variáveis?

10.8 Sumarizando dados grupados

Trabalhar sobre dados grupados é uma das grande facilidades proprorcionadas pelo pacote Dplyr. Essa funcionalidade é disponibilizada pela função sumarise(), usada em conjunto com a função group_by().

Por exemplo, para calcular o atraso médio por dia:

by_day <- group_by(flights, year, month, day)
summarise(by_day, delay = mean(dep_delay, na.rm = TRUE)) #removendo os dados ausentes

## # A tibble: 365 x 4
## # Groups:   year, month [?]
##     year month   day     delay
##    <int> <int> <int>     <dbl>
##  1  2013     1     1 11.548926
##  2  2013     1     2 13.858824
##  3  2013     1     3 10.987832
##  4  2013     1     4  8.951595
##  5  2013     1     5  5.732218
##  6  2013     1     6  7.148014
##  7  2013     1     7  5.417204
##  8  2013     1     8  2.553073
##  9  2013     1     9  2.276477
## 10  2013     1    10  2.844995
## # ... with 355 more rows
…
Teste o comando:

flights %>% 
  group_by(year, month, day) %>% 
  summarise(mean = mean(dep_delay))

Solução

# Em funções agregadoras, se os dados de entrada possuem dados ausentes, a saída será "NA".  Por isso considere sempre a possibilidade de definir "rm.na=TRE"

flights %>% 
  group_by(year, month, day) %>% 
  summarise(mean = mean(dep_delay))

## # A tibble: 365 x 4
## # Groups:   year, month [?]
##     year month   day  mean
##    <int> <int> <int> <dbl>
##  1  2013     1     1    NA
##  2  2013     1     2    NA
##  3  2013     1     3    NA
##  4  2013     1     4    NA
##  5  2013     1     5    NA
##  6  2013     1     6    NA
##  7  2013     1     7    NA
##  8  2013     1     8    NA
##  9  2013     1     9    NA
## 10  2013     1    10    NA
## # ... with 355 more rows
…
